Plant Survival Data Analysis
…
Back-transformed means

avg_asin_FTR_R1 <- damage_data_run1_FTR_percent_clean %>%
  group_by(Day) %>%
  group_by(Treatment, .add = TRUE) %>%
  summarise(mean_asin = mean(asin_percent_damage))

## `summarise()` has grouped output by 'Day'. You can override using the `.groups`
## argument.

avg_asin_FTR_R1 <- mutate(avg_asin_FTR_R1, mean_asin_backtrans = ((sin(mean_asin))^2))

avg_asin_FTR_R1

## # A tibble: 52 x 4
## # Groups:   Day [4]
##    Day   Treatment mean_asin mean_asin_backtrans
##    <fct> <fct>         <dbl>               <dbl>
##  1 7     2,4-D         0.268              0.0703
##  2 7     amit          0.462              0.198 
##  3 7     con           0                  0     
##  4 7     gluf          0.570              0.292 
##  5 7     gly           0.608              0.326 
##  6 7     para          0.498              0.228 
##  7 7     para/amit     0.522              0.249 
##  8 7     para/saf      0.510              0.238 
##  9 7     para/tia      0.383              0.140 
## 10 7     para/vor      0.588              0.308 
## # ... with 42 more rows
…
Backtransformed means

avg_asin_ST_R1 <- damage_data_run1_ST_percent_clean %>%
  group_by(Day) %>%
  group_by(Treatment, .add = TRUE) %>%
  summarise(mean_asin = mean(asin_percent_damage))

## `summarise()` has grouped output by 'Day'. You can override using the `.groups`
## argument.

avg_asin_ST_R1 <- mutate(avg_asin_ST_R1, mean_asin_backtrans = ((sin(mean_asin))^2))

avg_asin_ST_R1

## # A tibble: 52 x 4
## # Groups:   Day [4]
##    Day   Treatment mean_asin mean_asin_backtrans
##    <fct> <fct>         <dbl>               <dbl>
##  1 7     2,4-D         0                  0     
##  2 7     amit          0.274              0.0730
##  3 7     con           0                  0     
##  4 7     gluf          0.788              0.503 
##  5 7     gly           0.274              0.0730
##  6 7     para          1.12               0.812 
##  7 7     para/amit     0.837              0.551 
##  8 7     para/saf      1.32               0.939 
##  9 7     para/tia      1.20               0.865 
## 10 7     para/vor      1.32               0.937 
## # ... with 42 more rows
…
Backtransformed means

avg_asin_ST_R2 <- damage_data_run2_ST_percent_clean %>%
  group_by(Day) %>%
  group_by(Treatment, .add = TRUE) %>%
  summarise(mean_asin = mean(asin_percent_damage))

## `summarise()` has grouped output by 'Day'. You can override using the `.groups`
## argument.

avg_asin_ST_R2 <- mutate(avg_asin_ST_R2, mean_asin_backtrans = ((sin(mean_asin))^2))

avg_asin_ST_R2

## # A tibble: 52 x 4
## # Groups:   Day [4]
##    Day   Treatment mean_asin mean_asin_backtrans
##    <fct> <fct>         <dbl>               <dbl>
##  1 7     2,4-D         0.298              0.0860
##  2 7     amit          0.414              0.162 
##  3 7     con           0                  0     
##  4 7     gluf          0.694              0.409 
##  5 7     gly           0.395              0.148 
##  6 7     para          0.672              0.387 
##  7 7     para/amit     0.593              0.312 
##  8 7     para/saf      1.05               0.754 
##  9 7     para/tia      0.798              0.513 
## 10 7     para/vor      0.925              0.638 
## # ... with 42 more rows
…
avg_asin_FB_R1 <- damage_data_run1_FB_percent_clean %>%
  group_by(Day) %>%
  group_by(Treatment, .add = TRUE) %>%
  summarise(mean_asin = mean(asin_percent_damage))

## `summarise()` has grouped output by 'Day'. You can override using the `.groups`
## argument.

avg_asin_FB_R1 <- mutate(avg_asin_FB_R1, mean_asin_backtrans = ((sin(mean_asin))^2))

avg_asin_FB_R1

## # A tibble: 54 x 4
## # Groups:   Day [6]
##    Day   Treatment mean_asin mean_asin_backtrans
##    <fct> <fct>         <dbl>               <dbl>
##  1 7     2,4-D         0                   0    
##  2 7     con           0                   0    
##  3 7     gluf          0.504               0.233
##  4 7     gly           0.226               0.05 
##  5 7     para          1.03                0.732
##  6 7     para/amit     0.502               0.232
##  7 7     para/saf      0.784               0.499
##  8 7     para/tia      0.580               0.3  
##  9 7     para/vor      0.504               0.233
## 10 14    2,4-D         0                   0    
## # ... with 44 more rows
…
Backtransformed means

avg_asin_FB_R2 <- damage_data_run2_FB_percent_clean %>%
  group_by(Day) %>%
  group_by(Treatment, .add = TRUE) %>%
  summarise(mean_asin = mean(asin_percent_damage))

## `summarise()` has grouped output by 'Day'. You can override using the `.groups`
## argument.

avg_asin_FB_R2 <- mutate(avg_asin_FB_R2, mean_asin_backtrans = ((sin(mean_asin))^2))

avg_asin_FB_R2

## # A tibble: 52 x 4
## # Groups:   Day [4]
##    Day   Treatment mean_asin mean_asin_backtrans
##    <fct> <fct>         <dbl>               <dbl>
##  1 7     2,4-D         0.226               0.05 
##  2 7     amit          0.226               0.05 
##  3 7     con           0                   0    
##  4 7     gluf          0.798               0.513
##  5 7     gly           0.226               0.05 
##  6 7     para          0.993               0.702
##  7 7     para/amit     0.954               0.666
##  8 7     para/saf      1.03                0.739
##  9 7     para/tia      0.912               0.625
## 10 7     para/vor      0.886               0.6  
## # ... with 42 more rows
